…
hexp2003sort
```

    ## # A tibble: 24 × 10
    ##    year   hexp ir_mi population country     num_m…¹ totalp totaltb   Wpop  CWpop
    ##    <chr> <dbl> <dbl>      <dbl> <chr>         <dbl>  <dbl>   <dbl>  <dbl>  <dbl>
    ##  1 2003   138.  44        23861 Huanuco       1050. 599829  20417. 0.0398 0.0398
    ##  2 2003   147.  52.4      14629 Huancaveli…    767. 599829  20417. 0.0244 0.0642
    ##  3 2003   159.  35.5      12631 Amazonas       448. 599829  20417. 0.0211 0.0852
    ##  4 2003   160.  52        13086 Apurimac       680. 599829  20417. 0.0218 0.107 
    ##  5 2003   170.  44.6      14755 Ayacucho       658. 599829  20417. 0.0246 0.132 
    ##  6 2003   207.  41.6       6802 Pasco          283. 599829  20417. 0.0113 0.143 
    ##  7 2003   216.  28.9      18583 San Martin     537. 599829  20417. 0.0310 0.174 
    ##  8 2003   225.  49.3      31682 Cusco         1562. 599829  20417. 0.0528 0.227 
    ##  9 2003   231   53.1      33935 Puno          1802. 599829  20417. 0.0566 0.283 
    ## 10 2003   234.  42.1      42292 Cajamarca     1780. 599829  20417. 0.0705 0.354 
    ## # … with 14 more rows, and abbreviated variable name ¹​num_mortinfant
…
